Stary adres – robimy przekierowanie 301 do nowego adresu w Presta ;Meta tagi: Title strony;Meta tagi: Describtion strony;;;;;;;;;;
link_www;tytul_www;opis_www;nazwa;email;telefon;kod_pocztowy;miasto;ulica_numer;woj;kierownik;email_kierownika;godziny_otwarcia
https://www.blu.com.pl/salony/nowysacz;BLU salon łazienek Nowy Sącz;Informacje o salonie - BLU salon łazienek Nowy Sącz;BLU salon łazienek Nowy Sącz;nowysacz@blu.com.pl;(18) 4490068;33-300;Nowy Sącz;Zielona 45;podkarpackie;Wiesław Turek;wieslaw.turek@blu.com.pl;monday@09:00-17:00,tuesday@09:00-17:00,wednesday@09:00-17:00,thursday@09:00-17:00,fridaysaturday@-,sunday@-
https://www.blu.com.pl/salony/bialystok;BLU salon łazienek Białystok;Informacje o salonie - BLU salon łazienek Białystok;BLU salon łazienek Białystok;bialystok@blu.com.pl;85 745 04 58, 85 745 04 59 projektant 85 745 04 65;15-399;Białystok;Składowa 12;podlaskie;Jarosław Skobodziński;jaroslaw.skobodzinski@blu.com.pl;monday@09:00-18:00,tuesday@09:00-18:00,wednesday@09:00-18:00,thursday@09:00-18:00,fridaysaturday@-,sunday@-
https://www.blu.com.pl/salony/lomza;BLU salon łazienek Łomża;Informacje o salonie - BLU salon łazienek Łomża;BLU salon łazienek Łomża;lomza@blu.com.pl;668512574;18-400;Łomża;Piłsudskiego 82;podlaskie;Tomasz Śniedko;tomasz.sniedko@blu.com.pl;monday@09:00-17:00,tuesday@09:00-17:00,wednesday@09:00-17:00,thursday@09:00-17:00,fridaysaturday@-,sunday@-
https://www.blu.com.pl/salony/gizycko;BLU salon łazienek Giżycko;Informacje o salonie - BLU salon łazienek Giżycko;BLU salon łazienek Giżycko;gizycko@blu.com.pl;664726887;11-500;Giżycko;Białostocka 39;warmińsko-mazurskie;Sylwester Bujko;sylwester.bujko@blu.com.pl;monday@08:00-18:00,tuesday@08:00-18:00,wednesday@08:00-18:00,thursday@08:00-18:00,fridaysaturday@-,sunday@-
https://www.blu.com.pl/salony/olsztyn;BLU salon łazienek Olsztyn;Informacje o salonie - BLU salon łazienek Olsztyn;BLU salon łazienek Olsztyn;olsztyn@blu.com.pl;660764928, 795107735 ;10-408;Olsztyn;Lubelska 25;warmińsko-mazurskie;Justyna Packiewicz;justyna.packiewicz@blu.com.pl;monday@09:00-18:00,tuesday@09:00-18:00,wednesday@09:00-18:00,thursday@09:00-18:00,fridaysaturday@-,sunday@-
https://www.blu.com.pl/salony/bialapodlaska;BLU salon łazienek Biała Podlaska;Informacje o salonie - BLU salon łazienek Biała Podlaska;BLU salon łazienek Biała Podlaska;bialapodlaska@blu.com.pl;506944530;21-500;Biała Podlaska;Sidorska 2e;lubelskie;Marek Gicewicz;marek.gicewicz@blu.com.pl;monday@09:00-17:00,tuesday@09:00-17:00,wednesday@09:00-17:00,thursday@09:00-17:00,fridaysaturday@-,sunday@-
https://www.blu.com.pl/salony/lebork;BLU salon łazienek Lębork;Informacje o salonie - BLU salon łazienek Lębork;BLU salon łazienek Lębork;lebork@blu.com.pl;518-245-541;84-300;Lębork;Słupska 16D;pomorskie;Daria Szymichowska;lebork@blu.com.pl;monday@10:00-18:00,tuesday@10:00-18:00,wednesday@10:00-18:00,thursday@10:00-18:00,fridaysaturday@-,sunday@-
https://www.blu.com.pl/salony/rumia;BLU salon łazienek Rumia;Informacje o salonie - BLU salon łazienek Rumia;BLU salon łazienek Rumia;rumia@blu.com.pl;(58) 5724251;84-230;Rumia;Grunwaldzka 35;pomorskie;;rumia@blu.com.pl;monday@09:00-19:00,tuesday@09:00-19:00,wednesday@09:00-19:00,thursday@09:00-19:00,fridaysaturday@-,sunday@-
https://www.blu.com.pl/salony/slupsk;BLU salon łazienek Słupsk;Informacje o salonie - BLU salon łazienek Słupsk;BLU salon łazienek Słupsk;slupsk@blu.com.pl;59 840 30 73;76-200;Słupsk;Przemysłowa 100;pomorskie; ; ;monday@10:00-18:00,tuesday@10:00-18:00,wednesday@10:00-18:00,thursday@10:00-18:00,fridaysaturday@-,sunday@-
https://www.blu.com.pl/salony/kolobrzeg;BLU salon łazienek Kołobrzeg;Informacje o salonie - BLU salon łazienek Kołobrzeg;BLU salon łazienek Kołobrzeg;kolobrzeg@blu.com.pl;94 352 43 71;78-100;Kołobrzeg;Sienkiewicza 15;zachodniopomorskie;Zygmunt Baryła;zygmunt.baryla@blu.com.pl;monday@09:00-17:00,tuesday@09:00-17:00,wednesday@09:00-17:00,thursday@09:00-17:00,fridaysaturday@-,sunday@-
https://www.blu.com.pl/salony/gniezno;BLU salon łazienek Gniezno;Informacje o salonie - BLU salon łazienek Gniezno;BLU salon łazienek Gniezno;gniezno@blu.com.pl;539-737-482;62-200;Gniezno;Poznańska 104-106;wielkopolskie;Julia Repczyńska;julia.repczynska@blu.com.pl;monday@10:00-18:00,tuesday@10:00-18:00,wednesday@10:00-18:00,thursday@10:00-18:00,fridaysaturday@-,sunday@-
https://www.blu.com.pl/salony/poznan;BLU salon łazienek Poznań;Informacje o salonie - BLU salon łazienek Poznań;BLU salon łazienek Poznań;poznan@blu.com.pl;"salon: 503 633 232;   projektanci: 690 525 975";60-004;Poznań;Głogowska 425;wielkopolskie;;poznan@blu.com.pl;monday@10:00-19:00,tuesday@10:00-19:00,wednesday@10:00-19:00,thursday@10:00-19:00,fridaysaturday@-,sunday@-
https://www.blu.com.pl/salony/inowroclaw;BLU salon łazienek Inowrocław ;Informacje o salonie - BLU salon łazienek Inowrocław ;BLU salon łazienek Inowrocław ;inowroclaw@blu.com.pl;52 352 17 84 / 668 009704 ;88-100;Inowrocław ;Staszica 67 ;kujawsko-pomorskie;Eryk Tabaczyński;eryk.tabaczynski@blu.com.pl;monday@09:00-18:00,tuesday@09:00-18:00,wednesday@09:00-18:00,thursday@09:00-18:00,fridaysaturday@-,sunday@-
https://www.blu.com.pl/salony/wloclawek;BLU salon łazienek Włocławek;Informacje o salonie - BLU salon łazienek Włocławek;BLU salon łazienek Włocławek;wloclawek@blu.com.pl;(54) 2820560;87-800;Włocławek;Witosa 5;kujawsko-pomorskie;Agata Grzelakowska;agata.grzelakowska@blu.com.pl;monday@09:00-18:00,tuesday@09:00-18:00,wednesday@09:00-18:00,thursday@09:00-18:00,fridaysaturday@-,sunday@-
https://www.blu.com.pl/salony/bydgoszcz;BLU salon łazienek Bydgoszcz;Informacje o salonie - BLU salon łazienek Bydgoszcz;BLU salon łazienek Bydgoszcz;bydgoszcz@blu.com.pl;(52) 3415150;85-027;Bydgoszcz;Jagiellońska 94A;kujawsko-pomorskie;Iwona Białowąs;iwona.bialowas@blu.com.pl;monday@09:00-18:00,tuesday@09:00-18:00,wednesday@09:00-18:00,thursday@09:00-18:00,fridaysaturday@-,sunday@-
https://www.blu.com.pl/salony/torun;BLU salon łazienek Toruń;Informacje o salonie - BLU salon łazienek Toruń;BLU salon łazienek Toruń;torun@blu.com.pl;(56) 653 90 55;87-100;Toruń;Polna 129;kujawsko-pomorskie;Eliza Ułanowicz;eliza.ulanowicz@blu.com.pl;monday@08:00-18:00,tuesday@08:00-18:00,wednesday@08:00-18:00,thursday@08:00-18:00,fridaysaturday@-,sunday@-
https://www.blu.com.pl/salony/skierniewice;BLU salon łazienek Skierniewice;Informacje o salonie - BLU salon łazienek Skierniewice;BLU salon łazienek Skierniewice;skierniewice@blu.com.pl;512-611-314;96-100;Skierniewice;Al. Niepodległości 2;łódzkie;d;szymon.barlak@blu.com.pl;monday@09:00-18:00,tuesday@09:00-18:00,wednesday@09:00-18:00,thursday@09:00-18:00,fridaysaturday@-,sunday@-
https://www.blu.com.pl/salony/cieszyn;BLU salon łazienek Cieszyn;Informacje o salonie - BLU salon łazienek Cieszyn;BLU salon łazienek Cieszyn;cieszyn@blu.com.pl;48602641127;43-400;Cieszyn;Stawowa 16;śląskie;Maria Kiełkowska;maria.kielkowska@blu.com.pl;monday@10:00-18:00,tuesday@10:00-18:00,wednesday@10:00-18:00,thursday@10:00-18:00,fridaysaturday@-,sunday@-
https://www.blu.com.pl/salony/bielskobiala;BLU salon łazienek Bielsko-Biała;Informacje o salonie - BLU salon łazienek Bielsko-Biała;BLU salon łazienek Bielsko-Biała;bielskobiala@blu.com.pl;33 5000033, 33 5000023;43-300;Bielsko-Biała;Partyzantów 22;śląskie;Tomasz Rapa;tomasz.rapa@blu.com.pl;monday@09:00-18:00,tuesday@09:00-18:00,wednesday@09:00-18:00,thursday@09:00-18:00,fridaysaturday@-,sunday@-
https://www.blu.com.pl/salony/bochnia;BLU salon łazienek Bochnia;Informacje o salonie - BLU salon łazienek Bochnia;BLU salon łazienek Bochnia;bochnia@blu.com.pl;14 611 12 67;32-700;Bochnia;Brzeska 68;małopolskie;Andrzej Tyka;andrzej.tyka@blu.com.pl;monday@08:00-17:00,tuesday@08:00-17:00,wednesday@08:00-17:00,thursday@08:00-17:00,fridaysaturday@-,sunday@-
https://www.blu.com.pl/salony/tarnow;BLU salon łazienek Tarnów;Informacje o salonie - BLU salon łazienek Tarnów;BLU salon łazienek Tarnów;tarnow@blu.com.pl;(14) 6263512;33-100;Tarnów;Kochanowskiego 43;małopolskie;Lucjan Skórka;lucjan.skorka@blu.com.pl;monday@08:00-17:00,tuesday@08:00-17:00,wednesday@08:00-17:00,thursday@08:00-17:00,fridaysaturday@-,sunday@-
https://www.blu.com.pl/salony/debica;BLU salon łazienek Dębica;Informacje o salonie - BLU salon łazienek Dębica;BLU salon łazienek Dębica;debica@blu.com.pl;14 670 31 18;39-200;Dębica;Rzeszowska 143;podkarpackie;Kamila Gaweł;kamila.gawel@blu.com.pl;monday@09:00-18:00,tuesday@09:00-18:00,wednesday@09:00-18:00,thursday@09:00-18:00,fridaysaturday@-,sunday@-
https://www.blu.com.pl/salony/rzeszow;BLU salon łazienek Rzeszów;Informacje o salonie - BLU salon łazienek Rzeszów;BLU salon łazienek Rzeszów;rzeszow@blu.com.pl;17 852-93-51, 668-627-470 ;;Rzeszów;Rejtana 51;podkarpackie;Violetta Świętoniowska-Hałys;projektant@blu.com.pl;monday@09:00-18:00,tuesday@09:00-18:00,wednesday@09:00-18:00,thursday@09:00-18:00,fridaysaturday@-,sunday@-
https://www.blu.com.pl/salony/jaroslaw;BLU salon łazienek Jarosław;Informacje o salonie - BLU salon łazienek Jarosław;BLU salon łazienek Jarosław;jaroslaw@blu.com.pl;(16) 6220044;37-500;Jarosław;Tarnowskiego 20A;podkarpackie;Łukasz Górski;lukasz.gorski@blu.com.pl;monday@08:00-17:00,tuesday@08:00-17:00,wednesday@08:00-17:00,thursday@08:00-17:00,fridaysaturday@-,sunday@-
https://www.blu.com.pl/salony/lublin;BLU salon łazienek Lublin;Informacje o salonie - BLU salon łazienek Lublin;BLU salon łazienek Lublin;lublin@blu.com.pl;(81) 5348025, kom. 666-379-158;20-209;Lublin;Mełgiewska 2B;lubelskie;Tomasz Kośmider;tomasz.kosmider@blu.com.pl;monday@09:00-18:00,tuesday@09:00-18:00,wednesday@09:00-18:00,thursday@09:00-18:00,fridaysaturday@-,sunday@-
https://www.blu.com.pl/salony/radom;BLU salon łazienek Radom;Informacje o salonie - BLU salon łazienek Radom;BLU salon łazienek Radom;radom@blu.com.pl;(48) 3602744;26-600;Radom;1905 roku nr 9;mazowieckie;Sebastian Popławski;sebastian.poplawski@blu.com.pl;monday@10:00-18:00,tuesday@10:00-18:00,wednesday@10:00-18:00,thursday@10:00-18:00,fridaysaturday@-,sunday@-
https://www.blu.com.pl/salony/grudziadz;BLU salon łazienek Grudziądz;Informacje o salonie - BLU salon łazienek Grudziądz;BLU salon łazienek Grudziądz;grudziadz@blu.com.pl;782842000;86-300;Grudziądz;Chełmińska 114A;kujawsko-pomorskie;Michał Kudźma;michal.kudzma@blu.com.pl;monday@10:00-18:00,tuesday@10:00-18:00,wednesday@10:00-18:00,thursday@10:00-18:00,fridaysaturday@-,sunday@-
https://www.blu.com.pl/salony/kwidzyn;BLU salon łazienek Kwidzyn;Informacje o salonie - BLU salon łazienek Kwidzyn;BLU salon łazienek Kwidzyn;kwidzyn@blu.com.pl;512963777;82-500;Kwidzyn;Grunwaldzka 9;pomorskie;Michał Kudźma;projektant.kwidzyn@blu.com;monday@10:00-18:00,tuesday@10:00-18:00,wednesday@10:00-18:00,thursday@10:00-18:00,fridaysaturday@-,sunday@-
https://www.blu.com.pl/salony/mlawa;BLU salon łazienek Mława;Informacje o salonie - BLU salon łazienek Mława;BLU salon łazienek Mława;mlawa@blu.com.pl;(23)6553382;06-500;Mława;Polna 40;mazowieckie;Andrzej Ząbecki;andrzej.zabecki@blu.com.pl;monday@09:00-18:00,tuesday@09:00-18:00,wednesday@09:00-18:00,thursday@09:00-18:00,fridaysaturday@-,sunday@-
https://www.blu.com.pl/salony/ciechanow;BLU salon łazienek Ciechanów;Informacje o salonie - BLU salon łazienek Ciechanów;BLU salon łazienek Ciechanów;ciechanow@blu.com.pl;(23) 6722633;06-400;Ciechanów;Sienkiewicza 85A;mazowieckie;Dagmara Suwińska;dagmara.suwinska@blu.com.pl;monday@09:00-17:30,tuesday@09:00-17:30,wednesday@09:00-17:30,thursday@09:00-17:30,fridaysaturday@-,sunday@-
https://www.blu.com.pl/salony/plonsk;BLU salon łazienek Płońsk;Informacje o salonie - BLU salon łazienek Płońsk;BLU salon łazienek Płońsk;plonsk@blu.com.pl;601-711-184;09-100;Płońsk;Wyszogrodzka 51C;mazowieckie;;;monday@08:00-17:30,tuesday@08:00-17:30,wednesday@08:00-17:30,thursday@08:00-17:30,fridaysaturday@-,sunday@-
https://www.blu.com.pl/salony/lodz2;BLU salon łazienek Łódź;Informacje o salonie - BLU salon łazienek Łódź;BLU salon łazienek Łódź;lodz2@blu.com.pl;(42) 6171171;91-463;Łódź;Zgierska 69;łódzkie;Agnieszka Rembielińska;agnieszka.rembielinska@blu.com.pl;monday@09:00-18:00,tuesday@09:00-18:00,wednesday@09:00-18:00,thursday@09:00-18:00,fridaysaturday@-,sunday@-
https://www.blu.com.pl/salony/lodz;BLU salon łazienek Łódź;Informacje o salonie - BLU salon łazienek Łódź;BLU salon łazienek Łódź;lodz@blu.com.pl;(42) 6767225;92-333;Łódź;Wydawnicza 21;łódzkie;Wojciech Jacak;wojciech.jacak@blu.com.pl;monday@09:00-18:00,tuesday@09:00-18:00,wednesday@09:00-18:00,thursday@09:00-18:00,fridaysaturday@-,sunday@-
https://www.blu.com.pl/salony/elblag;BLU salon łazienek Elbląg;Informacje o salonie - BLU salon łazienek Elbląg;BLU salon łazienek Elbląg;elblag@blu.com.pl;782 007 400, 785 777 055, 511 049 107;82-300;Elbląg;Malborska 52;warmińsko-mazurskie;;;monday@07:00-17:00,tuesday@07:00-17:00,wednesday@07:00-17:00,thursday@07:00-17:00,fridaysaturday@-,sunday@-
https://www.blu.com.pl/salony/chojnice;BLU salon łazienek Chojnice;Informacje o salonie - BLU salon łazienek Chojnice;BLU salon łazienek Chojnice;chojnice@blu.com.pl;(88) 1303307;89-604;Chojnice;Gdańska 96;pomorskie;Joanna Nieżurawska;joanna.niezurawska@blu.com.pl;monday@09:00-17:00,tuesday@09:00-17:00,wednesday@09:00-17:00,thursday@09:00-17:00,fridaysaturday@-,sunday@-
https://www.blu.com.pl/salony/ilawa;BLU salon łazienek Iława;Informacje o salonie - BLU salon łazienek Iława;BLU salon łazienek Iława;ilawa@blu.com.pl;89 67 67 805;14-200;Iława;Wyszyńskiego 45a;warmińsko-mazurskie;Jarosław Jankowski;jaroslaw.jankowski@blu.com.pl;monday@09:00-17:00,tuesday@09:00-17:00,wednesday@09:00-17:00,thursday@09:00-17:00,fridaysaturday@-,sunday@-
https://www.blu.com.pl/salony/koszalin;BLU salon łazienek Koszalin;Informacje o salonie - BLU salon łazienek Koszalin;BLU salon łazienek Koszalin;koszalin@blu.com.pl;94 314 68 75;75-212;Koszalin;Morska 33a;zachodniopomorskie;Elżbieta Królik;koszalin@blu.com.pl;monday@09:00-17:00,tuesday@09:00-17:00,wednesday@09:00-17:00,thursday@09:00-17:00,fridaysaturday@-,sunday@-
https://www.blu.com.pl/salony/pultusk;BLU salon łazienek Pułtusk;Informacje o salonie - BLU salon łazienek Pułtusk;BLU salon łazienek Pułtusk;pultusk@blu.com.pl;517234861;06-100;Pułtusk;Mickiewicza 41/43;mazowieckie;Agnieszka Deptuła;agnieszka.deptula@blu.com.pl;monday@08:00-17:00,tuesday@08:00-17:00,wednesday@08:00-17:00,thursday@08:00-17:00,fridaysaturday@-,sunday@-
https://www.blu.com.pl/salony/siedlce;BLU salon łazienek Siedlce;Informacje o salonie - BLU salon łazienek Siedlce;BLU salon łazienek Siedlce;siedlce@blu.com.pl;(25) 7553272;08-110;Siedlce;Brzeska 134;mazowieckie;Aneta Gwiazdecka;aneta.gwiazdecka@blu.com.pl;monday@09:00-18:00,tuesday@09:00-18:00,wednesday@09:00-18:00,thursday@09:00-18:00,fridaysaturday@-,sunday@-
https://www.blu.com.pl/salony/starogardgdanski;BLU salon łazienek Starogard Gdański;Informacje o salonie - BLU salon łazienek Starogard Gdański;BLU salon łazienek Starogard Gdański;starogard@blu.com.pl;(58) 5620703;83-200;Starogard Gdański;Hallera 16;pomorskie;Grzegorz Wardyn;grzegorz.wardyn@blu.com.pl;monday@09:00-18:00,tuesday@09:00-18:00,wednesday@09:00-18:00,thursday@09:00-18:00,fridaysaturday@-,sunday@-
https://www.blu.com.pl/salony/tczew;BLU salon łazienek Tczew;Informacje o salonie - BLU salon łazienek Tczew;BLU salon łazienek Tczew;tczew@blu.com.pl;48693844218;83-110;Tczew;Jagiellońska 55;pomorskie;Wioleta Kaczerewska;wioleta.kaczerewska@blu.com.pl;monday@10:00-18:00,tuesday@10:00-18:00,wednesday@10:00-18:00,thursday@10:00-18:00,fridaysaturday@-,sunday@-
https://www.blu.com.pl/salony/zielonagora;BLU salon łazienek Zielona Góra;Informacje o salonie - BLU salon łazienek Zielona Góra;BLU salon łazienek Zielona Góra;zielonagora@blu.com.pl;68 453 87 77;65-775;Zielona Góra;Zacisze 22;lubuskie;Andrzej Junik;andrzej.junik@blu.com.pl;monday@10:00-18:00,tuesday@10:00-18:00,wednesday@10:00-18:00,thursday@10:00-18:00,fridaysaturday@-,sunday@-
https://www.blu.com.pl/salony/lowicz;BLU salon łazienek Łowicz;Informacje o salonie - BLU salon łazienek Łowicz;BLU salon łazienek Łowicz;lowicz@blu.com.pl;797288148;99-400;Łowicz;Łęczycka 3a;łódzkie;Łukasz Karczewski ;l.karczewski@fachowieclowicz.pl;monday@08:00-17:30,tuesday@08:00-17:30,wednesday@08:00-17:30,thursday@08:00-17:30,fridaysaturday@-,sunday@-
https://www.blu.com.pl/salony/ostrowiecswietokrzyski;BLU salon łazienek Ostrowiec Świętokrzyski;Informacje o salonie - BLU salon łazienek Ostrowiec Świętokrzyski;BLU salon łazienek Ostrowiec Świętokrzyski;ostrowiec@blu.com.pl;41 343 26 35, 606 356 782;27-400;Ostrowiec Świętokrzyski;Kilińskiego 39A;świętokrzyskie;Marcin Barański;marcin.baranski@blu.com.pl;monday@09:00-17:00,tuesday@09:00-17:00,wednesday@09:00-17:00,thursday@09:00-17:00,fridaysaturday@-,sunday@-
https://www.blu.com.pl/salony/krosno;BLU salon łazienek Krosno;Informacje o salonie - BLU salon łazienek Krosno;BLU salon łazienek Krosno;krosno@blu.com.pl;538245620;38-400;Krosno;Pużaka 35;podkarpackie;Dżesika Urbanik-Dziadosz;dzesika.urbanik@blu.com.pl;monday@09:00-17:00,tuesday@09:00-17:00,wednesday@09:00-17:00,thursday@09:00-17:00,fridaysaturday@-,sunday@-
https://www.blu.com.pl/salony/augustow;BLU salon łazienek Augustów;Informacje o salonie - BLU salon łazienek Augustów;BLU salon łazienek Augustów;augustow@blu.com.pl;539737534;16-300;Augustów;Mazurska 21;podlaskie;;;monday@08:00-18:00,tuesday@08:00-18:00,wednesday@08:00-18:00,thursday@08:00-18:00,fridaysaturday@-,sunday@-
https://www.blu.com.pl/salony/tarnobrzeg;BLU Salon Łazienek Tarnobrzeg;Informacje o salonie - BLU Salon Łazienek Tarnobrzeg;BLU Salon Łazienek Tarnobrzeg;tarnobrzeg@blu.com.pl;572151577, 572168670;39-400;Tarnobrzeg;Warszawska 2a;podkarpackie;;;monday@09:00-18:00,tuesday@09:00-18:00,wednesday@09:00-18:00,thursday@09:00-18:00,fridaysaturday@-,sunday@-
https://www.blu.com.pl/salony/pila;BLU salon łazienek Piła;Informacje o salonie - BLU salon łazienek Piła;BLU salon łazienek Piła;pila@blu.com.pl;798798480, 798816195;64-920;Piła;Drygasa 6 ;wielkopolskie;Urszula Wawrzyniak;urszula.wawrzyniak@blu.com.pl;monday@10:00-18:00,tuesday@10:00-18:00,wednesday@10:00-18:00,thursday@10:00-18:00,fridaysaturday@-,sunday@-
https://www.blu.com.pl/salony/wrzesnia;BLU salon łazienek Września;Informacje o salonie - BLU salon łazienek Września;BLU salon łazienek Września;wrzesnia@blu.com.pl;502135031;62-303;Bierzglinek;Cisowa 17;wielkopolskie;;;monday@10:00-18:00,tuesday@10:00-18:00,wednesday@10:00-18:00,thursday@10:00-18:00,fridaysaturday@-,sunday@-
https://www.blu.com.pl/salony/chelm;BLU salon łazienek Chełm;Informacje o salonie - BLU salon łazienek Chełm;BLU salon łazienek Chełm;chelm@blu.com.pl;500762939;22-100;Chełm;Rampa Brzeska 5;lubelskie;;;monday@10:00-18:00,tuesday@10:00-18:00,wednesday@10:00-18:00,thursday@10:00-18:00,fridaysaturday@-,sunday@-
https://www.blu.com.pl/salony/zamosc;BLU salon łazienek Zamość;Informacje o salonie - BLU salon łazienek Zamość;BLU salon łazienek Zamość;zamosc@blu.com.pl;785100188;22-400;Zamość;Przemysłowa 21;lubelskie;;;monday@09:00-18:00,tuesday@09:00-18:00,wednesday@09:00-18:00,thursday@09:00-18:00,fridaysaturday@-,sunday@-
https://www.blu.com.pl/salony/suwalki;BLU salon łazienek Suwałki;Informacje o salonie - BLU salon łazienek Suwałki;BLU salon łazienek Suwałki;suwalki@blu.com.pl;531596531;16-400;Suwałki;Sejneńska 59;podlaskie;;;monday@08:00-17:00,tuesday@08:00-17:00,wednesday@08:00-17:00,thursday@08:00-17:00,fridaysaturday@-,sunday@-
